<svg xmlns="http://www.w3.org/2000/svg" width="91" height="54" viewBox="0 0 91 54">
    <g fill="none" fill-rule="evenodd">
        <path fill="#002F56" d="M7.655 16.669h15.308v3.22h-11.68v5.328h10.353v3.25H11.283v5.474H23.11v3.22H7.655V16.67M0 37.159h3.633V16.637H0zM25.833 34.359l2.217-2.616c2.006 1.724 4.043 2.705 6.619 2.705 2.276 0 3.714-1.07 3.714-2.615v-.06c0-1.487-.839-2.289-4.732-3.18-4.463-1.071-6.98-2.379-6.98-6.214v-.059c0-3.567 2.996-6.034 7.16-6.034 3.055 0 5.48.92 7.607 2.615l-1.977 2.765c-1.887-1.397-3.774-2.14-5.69-2.14-2.157 0-3.415 1.1-3.415 2.467v.06c0 1.605.959 2.318 5.002 3.27 4.433 1.07 6.71 2.645 6.71 6.093v.06c0 3.894-3.086 6.213-7.489 6.213-3.205 0-6.23-1.1-8.746-3.33"/>
        <path fill="#EB0028" d="M48.824 14.897L47 16.707 57.32 26.95 47 37.191 48.824 39l12.143-12.052-12.143-12.052"/>
        <path fill="#002F56" d="M78.843 14.897l-1.824 1.81 10.32 10.242-10.32 10.242L78.843 39l12.143-12.052-12.143-12.052M63.833 29.794l-1.824 1.81 10.32 10.242-10.32 10.242 1.824 1.81 12.143-12.052-12.143-12.052M63.833 0L62.01 1.81l10.32 10.242-10.32 10.242 1.824 1.81 12.143-12.052L63.833 0"/>
    </g>
</svg>
